<svg width="18" height="18" viewBox="0 0 18 18" fill="none" xmlns="http://www.w3.org/2000/svg">
<path d="M17.0626 10.7578C17.1874 10.1562 17.25 9.5701 17.25 8.99994C17.25 7.88276 17.0334 6.81438 16.5996 5.79481C16.1661 4.77532 15.5802 3.8965 14.8419 3.15817C14.1036 2.41984 13.2249 1.83392 12.2053 1.40023C11.1856 0.966828 10.1175 0.749944 9.00016 0.749944C8.42987 0.749944 7.84387 0.812497 7.2423 0.937522C6.4298 0.312521 5.51571 0 4.50008 0C3.25796 0 2.19746 0.439393 1.31851 1.31818C0.439475 2.19721 0.00012207 3.2577 0.00012207 4.49987C0.00012207 5.5155 0.312644 6.42958 0.937564 7.24208C0.812621 7.8436 0.750067 8.42965 0.750067 8.99994C0.750067 10.117 0.966788 11.1853 1.40035 12.205C1.83388 13.2245 2.41985 14.1033 3.15822 14.8418C3.8965 15.58 4.77546 16.1658 5.79495 16.5995C6.81452 17.0331 7.8829 17.2499 9.00008 17.2499C9.57033 17.2499 10.1563 17.1873 10.7582 17.0622C11.5705 17.6873 12.4845 18 13.5002 18C14.7422 18 15.803 17.5604 16.6815 16.6816C17.5605 15.8026 17.9999 14.7421 17.9999 13.4998C17.9997 12.4843 17.6873 11.5704 17.0626 10.7578ZM13.3592 12.498C13.1016 12.955 12.7557 13.3202 12.3222 13.5937C11.8885 13.8672 11.41 14.0759 10.8867 14.2206C10.3633 14.365 9.81648 14.4375 9.24603 14.4375C7.92587 14.4375 6.78924 14.1815 5.83603 13.6697C4.88283 13.1578 4.40629 12.5429 4.40629 11.824C4.40629 11.4725 4.50595 11.1798 4.70519 10.9453C4.90438 10.7108 5.19929 10.5938 5.58992 10.5938C5.8165 10.5938 6.02735 10.6563 6.22264 10.7812C6.41794 10.9062 6.5976 11.0568 6.76174 11.2326C6.92588 11.4085 7.10348 11.584 7.29492 11.7599C7.48623 11.9358 7.74014 12.0861 8.05652 12.2111C8.37298 12.3361 8.73041 12.3988 9.12896 12.3988C9.63674 12.3988 10.0467 12.2993 10.3596 12.1002C10.6719 11.9007 10.8281 11.6487 10.8281 11.3442C10.8281 11.0315 10.7033 10.7972 10.4534 10.641C10.2817 10.5313 9.84402 10.3907 9.14087 10.2189L7.42976 9.7968C6.96106 9.68753 6.55868 9.5607 6.22268 9.41626C5.88668 9.27162 5.57416 9.0824 5.28516 8.84782C4.99624 8.61354 4.77747 8.31871 4.62901 7.96309C4.48058 7.60771 4.40637 7.19159 4.40637 6.71506C4.40637 6.14469 4.53727 5.6429 4.79889 5.20918C5.06052 4.77553 5.40838 4.43563 5.84182 4.18956C6.27535 3.94345 6.74216 3.7599 7.24226 3.63881C7.74215 3.51769 8.25781 3.45714 8.78907 3.45714C9.53922 3.45714 10.2498 3.54703 10.9218 3.72669C11.5937 3.90635 12.1484 4.17002 12.5857 4.51768C13.0232 4.86546 13.2419 5.25412 13.2419 5.68374C13.2419 6.03518 13.1308 6.33608 12.9078 6.58601C12.6856 6.83589 12.3906 6.96092 12.0233 6.96092C11.8202 6.96092 11.6328 6.914 11.4609 6.82025C11.2891 6.72655 11.1329 6.6133 10.992 6.48048C10.8514 6.34774 10.7028 6.21684 10.5466 6.08796C10.3904 5.95908 10.1794 5.84776 9.91409 5.75401C9.64815 5.66027 9.34757 5.61335 9.01165 5.61335C7.88676 5.61335 7.32419 5.91393 7.32419 6.51561C7.32419 6.64836 7.35353 6.76558 7.41207 6.86713C7.47064 6.96868 7.5352 7.05073 7.60539 7.11324C7.67554 7.17583 7.79276 7.23826 7.95691 7.30082C8.12105 7.36341 8.25777 7.40844 8.36712 7.43561C8.47642 7.46295 8.64844 7.50395 8.88273 7.55858L10.1015 7.83979C10.4843 7.92582 10.8259 8.01571 11.1269 8.10933C11.4278 8.20324 11.75 8.33595 12.0937 8.50788C12.4374 8.67974 12.7226 8.87106 12.949 9.08203C13.1757 9.29317 13.3651 9.56046 13.5176 9.88468C13.6701 10.209 13.746 10.5664 13.746 10.957C13.746 11.5272 13.6173 12.041 13.3592 12.498Z" fill="#FE213B"/>
</svg>
